{
  "name": "Topa",
  "integrations": {
    "cordova": {}
  },
  "type": "ionic-angular",
  "typescript": true,
  "v2": true,
  "proxies": [
    {
      "path": "/api",
      "proxyUrl": "https://topa5.remingtonexchange.io/api"
    }
  ],
  "id": "d5e8cb67"
}
