<?xml version="1.0" encoding="iso-8859-1"?>
<!-- Generator: Adobe Illustrator 19.0.0, SVG Export Plug-In . SVG Version: 6.00 Build 0)  -->
<svg version="1.1" id="Layer_1" xmlns="http://www.w3.org/2000/svg" xmlns:xlink="http://www.w3.org/1999/xlink" x="0px" y="0px"
	 viewBox="0 0 511.999 511.999" style="enable-background:new 0 0 511.999 511.999;" xml:space="preserve">
<g>
	<g>
		<path d="M412.539,16.348L385.307,0.001l-25.866,15.53l-25.864-15.53l-25.866,15.53l-25.865-15.53l-25.862,15.53L230.12,0
			l-25.858,15.531L178.398,0l-25.863,15.53L126.673,0L99.451,16.347L59.755,0.485v511.026l39.704-15.86l27.231,16.347l25.866-15.53
			l25.865,15.53l25.865-15.53l25.866,15.53l25.862-15.53l25.862,15.531l25.858-15.531l25.863,15.53l25.863-15.53l25.862,15.53
			l27.223-16.347l39.696,15.862V0.488L412.539,16.348z M421.855,147.619h-20.172v30.387h20.172v288.642l-12.029-4.807
			l-24.501,14.712l-25.862-15.53l-25.863,15.53l-25.864-15.53l-25.858,15.53l-25.861-15.53l-25.863,15.531l-25.865-15.53
			l-25.865,15.53l-25.865-15.53l-25.867,15.531l-24.51-14.712l-12.036,4.808V178.006h20.172v-30.387H90.142V45.351l12.029,4.807
			l24.501-14.712l25.862,15.53l25.863-15.53l25.864,15.53l25.858-15.53l25.861,15.53l25.863-15.531l25.864,15.53l25.866-15.53
			l25.865,15.53l25.867-15.531l24.509,14.713l12.036-4.808V147.619z"/>
	</g>
</g>
<g>
	<g>
		<path d="M293.495,310.786v-42.903h37.655v-30.387h-37.655v-19.021h-30.387v19.021H248.89v-19.021h-30.387v19.054
			c-26.181,0.684-47.273,22.177-47.273,48.521v6.538c0,26.343,21.092,47.837,47.273,48.52v42.903h-37.655v30.387h37.655v19.021
			h30.387v-19.021h14.218v19.021h30.387v-19.054c26.181-0.684,47.273-22.177,47.273-48.52v-6.538
			C340.768,332.964,319.677,311.469,293.495,310.786z M218.503,310.689c-9.42-0.662-16.886-8.517-16.886-18.102v-6.538
			c0-9.585,7.466-17.44,16.886-18.102V310.689z M263.108,384.011H248.89V341.14h14.218V384.011z M263.108,310.754H248.89v-42.871
			h14.218V310.754z M310.381,365.846c0,9.584-7.466,17.439-16.886,18.102v-42.741c9.42,0.661,16.886,8.516,16.886,18.102V365.846z"
			/>
	</g>
</g>
<g>
	<g>
		<rect x="129.407" y="147.62" width="35.365" height="30.387"/>
	</g>
</g>
<g>
	<g>
		<rect x="183.861" y="147.62" width="35.365" height="30.387"/>
	</g>
</g>
<g>
	<g>
		<rect x="238.314" y="147.62" width="35.365" height="30.387"/>
	</g>
</g>
<g>
	<g>
		<rect x="292.768" y="147.62" width="35.365" height="30.387"/>
	</g>
</g>
<g>
	<g>
		<rect x="347.232" y="147.62" width="35.365" height="30.387"/>
	</g>
</g>
<g>
</g>
<g>
</g>
<g>
</g>
<g>
</g>
<g>
</g>
<g>
</g>
<g>
</g>
<g>
</g>
<g>
</g>
<g>
</g>
<g>
</g>
<g>
</g>
<g>
</g>
<g>
</g>
<g>
</g>
</svg>
